{"contacts":[{"TYPE":["O"],"ID":1970,"NAME":"1 e 1 Dizayn - Mimarlık","CONTROLNAME":"1e1dizayn-","TITLE":null,"JOBTITLE":null,"ADDRESS":"Mustafa Kemal Paşa Mah. Karadut Sokak No : 97","CITY":"İstanbul","STATE":"Avcşlar","COUNTRY":"","ZIP":"","PARENTCONTACTID":null,"PARENTCONTACTNAME":"","NOTE":"","ORGANIZATIONTYPEID":2,"ORID":10776,"USERID":29608,"DATETIME":"1970-01-01T00:00:00.000Z","DATETIMEEDIT":"1970-01-01T00:00:00.000Z","USERIDEDIT":29608,"GOOGLEID":null,"POSITION":"","COORDINATE":"28.70769 41.00133","STAMP":"2025-08-04T17:31:20.000Z","emails":[{"ID":1471,"CONTACTID":1970,"EMAIL":"info@1e1mimarlik.com","ORID":10776,"USERID":29608,"DATETIMEEDIT":null,"STAMP":null}],"phones":[{"ID":1969,"CONTACTID":1970,"NUMBER":"0537 607 10 70","CONTROLNUMBER":"5376071070","TYPE":"","ORID":10776,"USERID":29608,"DATETIMEEDIT":null,"STAMP":null}]},{"TYPE":["O"],"ID":750,"NAME":"1000A DşZAYN YAPI VE YAPI MALZ.SAN.TşC.LTD.ŞTş.","CONTROLNAME":"1000adizay","TITLE":null,"JOBTITLE":null,"ADDRESS":"Yeni Yol Mah.Sel Sok.No.51/a","CITY":"şorum","STATE":"","COUNTRY":"Türkiye","ZIP":"","PARENTCONTACTID":null,"PARENTCONTACTNAME":"","NOTE":"","ORGANIZATIONTYPEID":3,"ORID":10776,"USERID":29682,"DATETIME":"1970-01-01T00:00:00.000Z","DATETIMEEDIT":"1970-01-01T00:00:00.000Z","USERIDEDIT":29682,"GOOGLEID":null,"POSITION":"","COORDINATE":"34.95703 40.5502","STAMP":"2025-08-04T17:25:56.000Z","emails":[],"phones":[]},{"TYPE":["O"],"ID":941,"NAME":"1900dor MşMARLIK & DEKORASYON","CONTROLNAME":"1900dormim","TITLE":null,"JOBTITLE":null,"ADDRESS":"Tevfik Erdşnmez Sokak, Gşl Apt. Kat : 7 , Daire : 40 Esentepe","CITY":"İstanbul","STATE":"şişli","COUNTRY":"","ZIP":"","PARENTCONTACTID":null,"PARENTCONTACTNAME":"","NOTE":"","ORGANIZATIONTYPEID":2,"ORID":10776,"USERID":29608,"DATETIME":"1970-01-01T00:00:00.000Z","DATETIMEEDIT":"1970-01-01T00:00:00.000Z","USERIDEDIT":29608,"GOOGLEID":null,"POSITION":"","COORDINATE":"29.00722 41.0675","STAMP":"2025-08-04T17:31:14.000Z","emails":[],"phones":[{"ID":923,"CONTACTID":941,"NUMBER":"0212 266 08 74","CONTROLNUMBER":"2122660874","TYPE":"","ORID":10776,"USERID":29608,"DATETIMEEDIT":null,"STAMP":null}]},{"TYPE":["O"],"ID":947,"NAME":"1A3B TASARIM","CONTROLNAME":"1a3btasari","TITLE":null,"JOBTITLE":null,"ADDRESS":"Kuzguncuk Mahallesi, Tomruk Ağası Sokak, No:45/2","CITY":"İstanbul","STATE":"Üsküdar","COUNTRY":"","ZIP":"","PARENTCONTACTID":null,"PARENTCONTACTNAME":"","NOTE":"","ORGANIZATIONTYPEID":3,"ORID":10776,"USERID":29608,"DATETIME":"1970-01-01T00:00:00.000Z","DATETIMEEDIT":"1970-01-01T00:00:00.000Z","USERIDEDIT":29608,"GOOGLEID":null,"POSITION":"","COORDINATE":"29.03343 41.03276","STAMP":"2025-08-04T17:31:14.000Z","emails":[{"ID":771,"CONTACTID":947,"EMAIL":"info@1a3b.com","ORID":10776,"USERID":29608,"DATETIMEEDIT":null,"STAMP":null}],"phones":[{"ID":929,"CONTACTID":947,"NUMBER":"0216 201 14 94","CONTROLNUMBER":"2162011494","TYPE":"","ORID":10776,"USERID":29608,"DATETIMEEDIT":null,"STAMP":null}]},{"TYPE":["O"],"ID":1505,"NAME":"216 YAPI","CONTROLNAME":"216yapi","TITLE":null,"JOBTITLE":null,"ADDRESS":"Soğukpınar Mahallesi. Barbaros Bulvarı Kartal Sokak No:99","CITY":"İstanbul","STATE":"Çekmeköy","COUNTRY":"","ZIP":"","PARENTCONTACTID":null,"PARENTCONTACTNAME":"","NOTE":"","ORGANIZATIONTYPEID":2,"ORID":10776,"USERID":29608,"DATETIME":"1970-01-01T00:00:00.000Z","DATETIMEEDIT":"1970-01-01T00:00:00.000Z","USERIDEDIT":29608,"GOOGLEID":null,"POSITION":"","COORDINATE":"29.23635 41.0252","STAMP":"2025-08-04T17:31:17.000Z","emails":[{"ID":1199,"CONTACTID":1505,"EMAIL":"info@216yapi.com","ORID":10776,"USERID":29608,"DATETIMEEDIT":null,"STAMP":null}],"phones":[{"ID":1485,"CONTACTID":1505,"NUMBER":"444 4 216","CONTROLNUMBER":"4444216","TYPE":"","ORID":10776,"USERID":29608,"DATETIMEEDIT":null,"STAMP":null}]},{"TYPE":["O"],"ID":909,"NAME":"22 YAPI TASARIM SAN.TşC. A.Ş.","CONTROLNAME":"22yapitasa","TITLE":null,"JOBTITLE":null,"ADDRESS":"Basşn Ekspres Yolu Capital Tower No: 9 Kat: 4 Daire: 34 34303","CITY":"İstanbul","STATE":"KÖZELşkşekmece","COUNTRY":"Türkiye","ZIP":"","PARENTCONTACTID":0,"PARENTCONTACTNAME":"","NOTE":"","ORGANIZATIONTYPEID":2,"ORID":10776,"USERID":29682,"DATETIME":"1970-01-01T00:00:00.000Z","DATETIMEEDIT":"1970-01-01T00:00:00.000Z","USERIDEDIT":29606,"GOOGLEID":null,"POSITION":"","COORDINATE":"28.80955 41.03649","STAMP":"2025-08-04T17:31:14.000Z","emails":[{"ID":736,"CONTACTID":909,"EMAIL":"info@22yapitasarim.com","ORID":10776,"USERID":29682,"DATETIMEEDIT":null,"STAMP":null}],"phones":[{"ID":892,"CONTACTID":909,"NUMBER":"0(212) 572 72 74","CONTROLNUMBER":"2125727274","TYPE":"","ORID":10776,"USERID":29682,"DATETIMEEDIT":null,"STAMP":null}]},{"TYPE":["O"],"ID":3129,"NAME":"23 PAFTA 15123 PARSEL DEKON PLUS SşTE YÖNETşCşLşĞş","CONTROLNAME":"23pafta151","TITLE":null,"JOBTITLE":null,"ADDRESS":"TATLISU MAH. YESEVş SK. NO:1/3","CITY":"şstanbul","STATE":"şmraniye","COUNTRY":"Türkiye","ZIP":"","PARENTCONTACTID":null,"PARENTCONTACTNAME":"","NOTE":"","ORGANIZATIONTYPEID":3,"ORID":10776,"USERID":29701,"DATETIME":"1970-01-01T00:00:00.000Z","DATETIMEEDIT":"1970-01-01T00:00:00.000Z","USERIDEDIT":29701,"GOOGLEID":null,"POSITION":"40.999701,29.127104","COORDINATE":"29.13818 40.9994","STAMP":"2025-08-04T17:26:23.000Z","emails":[{"ID":2417,"CONTACTID":3129,"EMAIL":"ersndgn34@gmail.com","ORID":10776,"USERID":29701,"DATETIMEEDIT":null,"STAMP":null}],"phones":[{"ID":2952,"CONTACTID":3129,"NUMBER":"0543 3633458","CONTROLNUMBER":"5433633458","TYPE":"","ORID":10776,"USERID":29701,"DATETIMEEDIT":null,"STAMP":null}]},{"TYPE":["O"],"ID":2354,"NAME":"24 GAYRşMENKUL","CONTROLNAME":"24gayrimen","TITLE":null,"JOBTITLE":null,"ADDRESS":"Mall of şstanbul, Ofis Kule, No:139-140","CITY":"şstanbul","STATE":"Başakşehir","COUNTRY":"Türkiye","ZIP":"","PARENTCONTACTID":null,"PARENTCONTACTNAME":"","NOTE":"TanŞtşm maili gşnderildi","ORGANIZATIONTYPEID":2,"ORID":10776,"USERID":32848,"DATETIME":"1970-01-01T00:00:00.000Z","DATETIMEEDIT":"1970-01-01T00:00:00.000Z","USERIDEDIT":32848,"GOOGLEID":null,"POSITION":"","COORDINATE":"28.80792 41.0617","STAMP":"2025-08-04T17:26:15.000Z","emails":[{"ID":1790,"CONTACTID":2354,"EMAIL":"info@24gayrimenkul.com","ORID":10776,"USERID":32848,"DATETIMEEDIT":null,"STAMP":null}],"phones":[{"ID":2374,"CONTACTID":2354,"NUMBER":"0 212 244 24 24","CONTROLNUMBER":"2122442424","TYPE":"","ORID":10776,"USERID":32848,"DATETIMEEDIT":null,"STAMP":null}]},{"TYPE":["O"],"ID":2562,"NAME":"2A ELEKTRşK ELEKTRONşK","CONTROLNAME":"2aelektrik","TITLE":null,"JOBTITLE":null,"ADDRESS":"Kazimiye Mah. Barbaros Cad. Akgşn Villalarş No:6","CITY":"Tekirdaş","STATE":"şorlu","COUNTRY":"","ZIP":"","PARENTCONTACTID":null,"PARENTCONTACTNAME":"","NOTE":"","ORGANIZATIONTYPEID":2,"ORID":10776,"USERID":32848,"DATETIME":"1970-01-01T00:00:00.000Z","DATETIMEEDIT":"1970-01-01T00:00:00.000Z","USERIDEDIT":32848,"GOOGLEID":null,"POSITION":"","COORDINATE":"27.81878 41.15616","STAMP":"2025-08-04T17:26:17.000Z","emails":[{"ID":1960,"CONTACTID":2562,"EMAIL":"info@2aelektronik.com","ORID":10776,"USERID":32848,"DATETIMEEDIT":null,"STAMP":null}],"phones":[{"ID":2516,"CONTACTID":2562,"NUMBER":" 0282 653 87 50","CONTROLNUMBER":"2826538750","TYPE":"","ORID":10776,"USERID":32848,"DATETIMEEDIT":null,"STAMP":null}]},{"TYPE":["O"],"ID":1678,"NAME":"2A YAPI VE DEKORASYON ARşF ATALAY","CONTROLNAME":"2ayapivede","TITLE":null,"JOBTITLE":null,"ADDRESS":"DERE MAH. VATAN CAD. NO:38","CITY":"Yalova","STATE":"Merkez","COUNTRY":"","ZIP":"","PARENTCONTACTID":null,"PARENTCONTACTNAME":"","NOTE":"","ORGANIZATIONTYPEID":5,"ORID":10776,"USERID":29701,"DATETIME":"1970-01-01T00:00:00.000Z","DATETIMEEDIT":"1970-01-01T00:00:00.000Z","USERIDEDIT":29701,"GOOGLEID":null,"POSITION":"41.0060212,29.125243899999994","COORDINATE":"29.2686913 40.6479442","STAMP":"2025-08-04T17:26:07.000Z","emails":[{"ID":1342,"CONTACTID":1678,"EMAIL":"info@gerall.net","ORID":10776,"USERID":29701,"DATETIMEEDIT":null,"STAMP":null}],"phones":[{"ID":1655,"CONTACTID":1678,"NUMBER":"0226 8124414","CONTROLNUMBER":"2268124414","TYPE":"main","ORID":10776,"USERID":29701,"DATETIMEEDIT":null,"STAMP":null},{"ID":1656,"CONTACTID":1678,"NUMBER":"0532 7210393","CONTROLNUMBER":"5327210393","TYPE":"mobile","ORID":10776,"USERID":29701,"DATETIMEEDIT":null,"STAMP":null}]},{"TYPE":["O"],"ID":3287,"NAME":"2B PROJE","CONTROLNAME":"2bproje","TITLE":null,"JOBTITLE":null,"ADDRESS":"","CITY":null,"STATE":null,"COUNTRY":"","ZIP":"","PARENTCONTACTID":null,"PARENTCONTACTNAME":"","NOTE":"","ORGANIZATIONTYPEID":2,"ORID":10776,"USERID":29682,"DATETIME":"1970-01-01T00:00:00.000Z","DATETIMEEDIT":"1970-01-01T00:00:00.000Z","USERIDEDIT":29682,"GOOGLEID":null,"POSITION":"","COORDINATE":"","STAMP":"2025-08-04T17:14:18.000Z","emails":[],"phones":[]},{"TYPE":["O"],"ID":374,"NAME":"3A TEKNşK MEKANşK VE ELEKTRşK SAN.TÜZEL.LTD.ŞTş","CONTROLNAME":"3ateknikme","TITLE":null,"JOBTITLE":null,"ADDRESS":"Meclis Mah. Baraj Yolu Cad. şaşatay Sok. Simplicity Sitesi B1 Blok D:23","CITY":"İstanbul","STATE":"Sancaktepe","COUNTRY":"Türkiye","ZIP":"","PARENTCONTACTID":null,"PARENTCONTACTNAME":"","NOTE":"","ORGANIZATIONTYPEID":2,"ORID":10776,"USERID":29682,"DATETIME":"1970-01-01T00:00:00.000Z","DATETIMEEDIT":"1970-01-01T00:00:00.000Z","USERIDEDIT":29682,"GOOGLEID":null,"POSITION":"","COORDINATE":"29.1866 41.00899","STAMP":"2025-08-04T17:31:11.000Z","emails":[{"ID":292,"CONTACTID":374,"EMAIL":"info@3ateknik.com.tr","ORID":10776,"USERID":29682,"DATETIMEEDIT":null,"STAMP":null}],"phones":[{"ID":375,"CONTACTID":374,"NUMBER":"02164454694","CONTROLNUMBER":"2164454694","TYPE":"","ORID":10776,"USERID":29682,"DATETIMEEDIT":null,"STAMP":null}]},{"TYPE":["O"],"ID":1789,"NAME":"3D YAPI DEKORASYON","CONTROLNAME":"3dyapideko","TITLE":null,"JOBTITLE":null,"ADDRESS":"mithat toroşlu mah. h. okan merzeci bulvarş 325/B-C","CITY":"Mersin","STATE":"Toroslar","COUNTRY":"","ZIP":"","PARENTCONTACTID":null,"PARENTCONTACTNAME":"","NOTE":"","ORGANIZATIONTYPEID":3,"ORID":10776,"USERID":29608,"DATETIME":"1970-01-01T00:00:00.000Z","DATETIMEEDIT":"1970-01-01T00:00:00.000Z","USERIDEDIT":29608,"GOOGLEID":null,"POSITION":"","COORDINATE":"34.60742 36.81776","STAMP":"2025-08-04T17:26:08.000Z","emails":[{"ID":1414,"CONTACTID":1789,"EMAIL":"info@3dyapidekor.com","ORID":10776,"USERID":29608,"DATETIMEEDIT":null,"STAMP":null}],"phones":[{"ID":1794,"CONTACTID":1789,"NUMBER":"0324 321 38 28","CONTROLNUMBER":"3243213828","TYPE":"","ORID":10776,"USERID":29608,"DATETIMEEDIT":null,"STAMP":null}]},{"TYPE":["O"],"ID":1282,"NAME":"3K YAPI","CONTROLNAME":"3kyapi","TITLE":null,"JOBTITLE":null,"ADDRESS":"ÖZELretmenevleri Mah. 900 Sk. Mehmet Okur Apt. No:4/8","CITY":"Antalya","STATE":"Konyaaltş","COUNTRY":"Türkiye","ZIP":"","PARENTCONTACTID":null,"PARENTCONTACTNAME":"","NOTE":"","ORGANIZATIONTYPEID":2,"ORID":10776,"USERID":29682,"DATETIME":"1970-01-01T00:00:00.000Z","DATETIMEEDIT":"1970-01-01T00:00:00.000Z","USERIDEDIT":29682,"GOOGLEID":null,"POSITION":"","COORDINATE":"30.64326 36.87623","STAMP":"2025-08-04T17:26:03.000Z","emails":[{"ID":1043,"CONTACTID":1282,"EMAIL":"info@3kyapi.com","ORID":10776,"USERID":29682,"DATETIMEEDIT":null,"STAMP":null}],"phones":[{"ID":1263,"CONTACTID":1282,"NUMBER":"0 242 243 5753","CONTROLNUMBER":"2422435753","TYPE":"","ORID":10776,"USERID":29682,"DATETIMEEDIT":null,"STAMP":null}]},{"TYPE":["O"],"ID":3164,"NAME":"3K-şLETÜZELşM ELEKTRşK ELEKTRONşK BşLGşSAYAR ALTYAPI SşSTEMLERş SAN. VE TşC. LTD. ŞTş.","CONTROLNAME":"3k-iletisi","TITLE":null,"JOBTITLE":null,"ADDRESS":"Perpa Ticaret Merkezi A Blok Kat:12 No:1947","CITY":"şstanbul","STATE":"şişli","COUNTRY":"Türkiye","ZIP":"","PARENTCONTACTID":null,"PARENTCONTACTNAME":"","NOTE":"","ORGANIZATIONTYPEID":2,"ORID":10776,"USERID":29682,"DATETIME":"1970-01-01T00:00:00.000Z","DATETIMEEDIT":"1970-01-01T00:00:00.000Z","USERIDEDIT":29682,"GOOGLEID":null,"POSITION":"","COORDINATE":"28.97057 41.06235","STAMP":"2025-08-04T17:26:24.000Z","emails":[],"phones":[]},{"TYPE":["O"],"ID":7,"NAME":"3S KALE GAYRşMENKUL GELşŞTşRME VE YATIRIM A.ş","CONTROLNAME":"3skalegayr","TITLE":null,"JOBTITLE":null,"ADDRESS":"GşVEN MAH. ESKş LONDRA ASFALTI NO: 89","CITY":"İstanbul","STATE":"Bahşelievler","COUNTRY":"","ZIP":"34160","PARENTCONTACTID":0,"PARENTCONTACTNAME":"","NOTE":"","ORGANIZATIONTYPEID":3,"ORID":10776,"USERID":29608,"DATETIME":"1970-01-01T00:00:00.000Z","DATETIMEEDIT":"1970-01-01T00:00:00.000Z","USERIDEDIT":29606,"GOOGLEID":null,"POSITION":"","COORDINATE":"28.87552 41.00994","STAMP":"2025-08-04T17:31:09.000Z","emails":[{"ID":8,"CONTACTID":7,"EMAIL":"info@3skale.com.tr","ORID":10776,"USERID":29608,"DATETIMEEDIT":null,"STAMP":null}],"phones":[{"ID":7,"CONTACTID":7,"NUMBER":"0212 591 28 58","CONTROLNUMBER":"2125912858","TYPE":"","ORID":10776,"USERID":29608,"DATETIMEEDIT":null,"STAMP":null}]},{"TYPE":["O"],"ID":2314,"NAME":"41 YAPI & MşMARLIK","CONTROLNAME":"41yapi&mim","TITLE":null,"JOBTITLE":null,"ADDRESS":"Bitez, şakşr Gşlsşm Cd. No:9/18,","CITY":"Muşla","STATE":"Bodrum","COUNTRY":"Türkiye","ZIP":"48960","PARENTCONTACTID":null,"PARENTCONTACTNAME":"","NOTE":"TanŞtşm maili gşnderildi","ORGANIZATIONTYPEID":14,"ORID":10776,"USERID":32848,"DATETIME":"1970-01-01T00:00:00.000Z","DATETIMEEDIT":"1970-01-01T00:00:00.000Z","USERIDEDIT":32848,"GOOGLEID":null,"POSITION":"41.0060254,29.125147400000003","COORDINATE":"27.38761 37.02464","STAMP":"2025-08-04T17:26:14.000Z","emails":[{"ID":1749,"CONTACTID":2314,"EMAIL":"bilgi@41yapi.com","ORID":10776,"USERID":32848,"DATETIMEEDIT":null,"STAMP":null}],"phones":[{"ID":2313,"CONTACTID":2314,"NUMBER":" 0532 434 66 13","CONTROLNUMBER":"5324346613","TYPE":"mobile","ORID":10776,"USERID":32848,"DATETIMEEDIT":null,"STAMP":null}]},{"TYPE":["O"],"ID":796,"NAME":"4NET şletişim Reklam Tur.şnş.Elk.Elkt.Şth.şhr. San.Tic.Ltd.Şti","CONTROLNAME":"4netiletis","TITLE":null,"JOBTITLE":null,"ADDRESS":"GÖZELlş Kaya Mah. Belşren Sok. No:4/d","CITY":"Ankara","STATE":"Keşişren","COUNTRY":"","ZIP":"","PARENTCONTACTID":null,"PARENTCONTACTNAME":"","NOTE":"","ORGANIZATIONTYPEID":2,"ORID":10776,"USERID":29606,"DATETIME":"1970-01-01T00:00:00.000Z","DATETIMEEDIT":"1970-01-01T00:00:00.000Z","USERIDEDIT":29606,"GOOGLEID":null,"POSITION":"","COORDINATE":"32.87015 39.97902","STAMP":"2025-08-04T17:25:57.000Z","emails":[{"ID":648,"CONTACTID":796,"EMAIL":"info@4netiletisim.com","ORID":10776,"USERID":29606,"DATETIMEEDIT":null,"STAMP":null}],"phones":[{"ID":783,"CONTACTID":796,"NUMBER":"0 553 289 07 65","CONTROLNUMBER":"5532890765","TYPE":"","ORID":10776,"USERID":29606,"DATETIMEEDIT":null,"STAMP":null}]},{"TYPE":["O"],"ID":2745,"NAME":"A MşMARLIK","CONTROLNAME":"amimarlik","TITLE":null,"JOBTITLE":null,"ADDRESS":"Operatşr Cemil Topuzlu Cad. ÖZELem Konak Apt. No:73 D:1","CITY":"şstanbul","STATE":"Kadıköy","COUNTRY":"Türkiye","ZIP":"","PARENTCONTACTID":null,"PARENTCONTACTNAME":"","NOTE":"","ORGANIZATIONTYPEID":14,"ORID":10776,"USERID":32848,"DATETIME":"1970-01-01T00:00:00.000Z","DATETIMEEDIT":"1970-01-01T00:00:00.000Z","USERIDEDIT":32848,"GOOGLEID":null,"POSITION":"","COORDINATE":"29.05806 40.96686","STAMP":"2025-08-04T17:26:19.000Z","emails":[{"ID":2127,"CONTACTID":2745,"EMAIL":"info@a-mimarlik.com.tr","ORID":10776,"USERID":32848,"DATETIMEEDIT":null,"STAMP":null}],"phones":[{"ID":2635,"CONTACTID":2745,"NUMBER":"(0216) 360 51 07","CONTROLNUMBER":"2163605107","TYPE":"","ORID":10776,"USERID":32848,"DATETIMEEDIT":null,"STAMP":null},{"ID":2636,"CONTACTID":2745,"NUMBER":"(0216) 360 44 81","CONTROLNUMBER":"2163604481","TYPE":"","ORID":10776,"USERID":32848,"DATETIMEEDIT":null,"STAMP":null}]},{"TYPE":["O"],"ID":1360,"NAME":"A PLUS REKLAM","CONTROLNAME":"aplusrekla","TITLE":null,"JOBTITLE":null,"ADDRESS":"Yenidoşan Mahallesi Aslanaşzş Sokak No:3","CITY":"Kocaeli","STATE":"şzmit","COUNTRY":"","ZIP":"","PARENTCONTACTID":null,"PARENTCONTACTNAME":"","NOTE":"","ORGANIZATIONTYPEID":2,"ORID":10776,"USERID":29608,"DATETIME":"1970-01-01T00:00:00.000Z","DATETIMEEDIT":"1970-01-01T00:00:00.000Z","USERIDEDIT":29608,"GOOGLEID":null,"POSITION":"","COORDINATE":"29.90024 40.76551","STAMP":"2025-08-04T17:26:04.000Z","emails":[{"ID":1103,"CONTACTID":1360,"EMAIL":"bilgi@aplusreklam.com","ORID":10776,"USERID":29608,"DATETIMEEDIT":null,"STAMP":null}],"phones":[{"ID":1341,"CONTACTID":1360,"NUMBER":"0262 333 00 99","CONTROLNUMBER":"2623330099","TYPE":"","ORID":10776,"USERID":29608,"DATETIMEEDIT":null,"STAMP":null}]}],"pagination":{"currentPage":1,"totalPages":198,"totalItems":3957,"itemsPerPage":20,"hasNextPage":true,"hasPrevPage":false}}